<svg version="1.1" xmlns="http://www.w3.org/2000/svg" xmlns:xlink="http://www.w3.org/1999/xlink" width="14" height="11" viewBox="0 0 14 11">
<path id="Email" d="M9.723,4.355 L13.998,0.707 L13.998,10.938 L9.723,4.355 zM0.055,-0.002 L13.963,-0.002 L7.009,5.930 L0.055,-0.002 zM0.002,10.962 L0.014,0.702 L4.295,4.355 L0.002,10.962 zM7.007,6.668 L7.007,6.671 L7.009,6.670 L7.011,6.671 L7.011,6.668 L9.380,4.646 L13.479,10.999 L0.540,10.999 L4.638,4.646 L7.007,6.668 z" fill="#353535" opacity="0.800" />
</svg>
