<svg version="1.1" xmlns="http://www.w3.org/2000/svg" xmlns:xlink="http://www.w3.org/1999/xlink" width="13" height="14" viewBox="0 0 13 14">
<path id="Calender2" d="M12.409,14.000 C12.409,14.000 0.591,14.000 0.591,14.000 C0.264,14.000 -0.000,13.738 -0.000,13.416 C-0.000,13.416 -0.000,2.041 -0.000,2.041 C-0.000,1.719 0.264,1.458 0.591,1.458 C0.591,1.458 0.912,1.458 0.912,1.458 C0.912,1.458 0.912,2.624 0.912,2.624 C0.912,3.269 1.312,3.894 2.261,3.920 C3.434,3.951 3.841,3.269 3.841,2.624 C3.841,2.624 3.841,1.458 3.841,1.458 L9.159,1.458 C9.159,1.458 9.159,2.624 9.159,2.624 C9.159,3.269 9.225,4.022 10.342,4.073 C11.545,4.128 12.088,3.277 12.088,2.624 C12.088,2.624 12.088,1.458 12.088,1.458 C12.088,1.458 12.409,1.458 12.409,1.458 C12.735,1.458 13.000,1.719 13.000,2.041 C13.000,2.041 13.000,13.416 13.000,13.416 C13.000,13.738 12.735,14.000 12.409,14.000 zM11.818,5.250 L1.182,5.250 L1.182,12.541 L11.818,12.541 L11.818,5.250 zM4.522,8.400 L2.826,8.400 L2.826,6.720 L4.522,6.720 L4.522,8.400 zM4.522,11.200 L2.826,11.200 L2.826,9.520 L4.522,9.520 L4.522,11.200 zM7.348,8.400 L5.652,8.400 L5.652,6.720 L7.348,6.720 L7.348,8.400 zM7.348,11.200 L5.652,11.200 L5.652,9.520 L7.348,9.520 L7.348,11.200 zM10.174,8.400 L8.478,8.400 L8.478,6.720 L10.174,6.720 L10.174,8.400 zM10.174,11.200 L8.478,11.200 L8.478,9.520 L10.174,9.520 L10.174,11.200 zM10.456,3.360 C9.990,3.360 9.613,3.046 9.613,2.659 C9.613,2.659 9.613,0.700 9.613,0.700 C9.613,0.313 9.990,-0.000 10.456,-0.000 C10.921,-0.000 11.298,0.313 11.298,0.700 C11.298,0.700 11.298,2.659 11.298,2.659 C11.298,3.046 10.921,3.360 10.456,3.360 zM2.544,3.360 C2.079,3.360 1.702,3.046 1.702,2.659 C1.702,2.659 1.702,0.700 1.702,0.700 C1.702,0.313 2.079,-0.000 2.544,-0.000 C3.009,-0.000 3.387,0.313 3.387,0.700 C3.387,0.700 3.387,2.659 3.387,2.659 C3.387,3.046 3.009,3.360 2.544,3.360 z" fill="#9F9F9F" />
</svg>
